[
  [[0,0,0],[0,0,0],[0,0,0],[0,0,0],[0,0,0],[0,0,0],[0,0,0],[0,0,0],[0,0,0],[0,0,0],[0,0,0]],
  [[0,0,0],[0,0,0],[0,0,0],[3,3,3],[3,3,3],[0,0,0],[0,0,0],[0,0,0],[0,0,0],[0,0,0],[0,0,0]],
  [[0,0,0],[0,0,0],[3,3,3],[11,11,11],[11,11,11],[3,3,3],[0,0,0],[0,0,0],[0,0,0],[0,0,0],[0,0,0]],
  [[0,0,0],[3,3,3],[11,11,11],[11,11,11],[11,11,11],[11,11,11],[3,3,3],[3,3,3],[3,3,3],[0,0,0],[0,0,0]],
  [[0,0,0],[3,3,3],[11,11,11],[11,11,11],[11,11,11],[3,3,3],[11,11,11],[11,11,11],[11,11,11],[3,3,3],[0,0,0]],
  [[0,0,0],[3,3,3],[11,11,11],[11,11,11],[11,11,11],[11,11,11],[11,11,11],[11,11,11],[11,11,11],[3,3,3],[0,0,0]],
  [[0,0,0],[0,0,0],[3,3,3],[11,11,11],[11,11,11],[11,11,11],[11,11,11],[11,11,11],[11,11,11],[3,3,3],[0,0,0]],
  [[0,0,0],[0,0,0],[1,1,10],[3,3,3],[3,3,3],[3,3,3],[3,3,3],[3,3,3],[3,3,3],[0,0,0],[0,0,0]],
  [[0,0,0],[0,0,0],[0,0,0],[0,0,0],[1,1,10],[0,0,0],[1,1,10],[0,0,0],[1,1,10],[0,0,0],[0,0,0]],
  [[0,0,0],[0,0,0],[1,1,10],[0,0,0],[1,1,10],[0,0,0],[0,0,0],[0,0,0],[1,1,10],[0,0,0],[0,0,0]],
  [[0,0,0],[0,0,0],[1,1,10],[0,0,0],[0,0,0],[0,0,0],[1,1,10],[0,0,0],[0,0,0],[0,0,0],[0,0,0]]
]

